Project
…
# Pivot the data to a wider format for analysis
wide_data <- data %>%
  pivot_wider(
    id_cols = c(date, hour),  # Keep date and hour as the identifier columns
    names_from = lat_lon,    # Create new column names from the lat_long identifier
    names_glue = "{.value}_{lat_lon}",  # Customize the new column names to include variable names and lat_long
    values_from = c(dswrf_surface, tcdc_low.cloud.layer, tcdc_middle.cloud.layer, tcdc_high.cloud.layer,
                    tcdc_entire.atmosphere, uswrf_top_of_atmosphere, csnow_surface,
                    dlwrf_surface, uswrf_surface, tmp_surface)  # List all columns to spread
  )
# Print the wide data to inspect it
print(wide_data)

## # A tibble: 21,114 × 252
##    date        hour dswrf_surface_38_35 dswrf_surface_38.5_35.25
##    <date>     <dbl>               <dbl>                    <dbl>
##  1 2022-01-01     4                0                          0 
##  2 2022-01-01     5                0                          0 
##  3 2022-01-01     6                0                          0 
##  4 2022-01-01     7                0                          0 
##  5 2022-01-01     8                0                          0 
##  6 2022-01-01     9                8.14                       7 
##  7 2022-01-01    10              185.                       159.
##  8 2022-01-01    11              271.                       245.
##  9 2022-01-01    12              332.                       306.
## 10 2022-01-01    13              373.                       345.
## # ℹ 21,104 more rows
## # ℹ 248 more variables: dswrf_surface_37.75_34.75 <dbl>,
## #   dswrf_surface_38.75_34.5 <dbl>, dswrf_surface_37.75_34.5 <dbl>,
## #   dswrf_surface_38.25_34.75 <dbl>, dswrf_surface_38.75_35 <dbl>,
## #   dswrf_surface_38.5_35 <dbl>, dswrf_surface_38.25_34.5 <dbl>,
## #   dswrf_surface_37.75_35 <dbl>, dswrf_surface_38_34.5 <dbl>,
## #   dswrf_surface_38.5_34.5 <dbl>, dswrf_surface_37.75_35.25 <dbl>, …
…
# Convert the date columns to Date format
wide_data$date = as.Date(wide_data$date, origin = "1899-12-30")
production_data$date = as.Date(production_data$date, origin = "1899-12-30")

# Assign wide_data to weather_data for consistency
weather_data = wide_data

# Merge the weather data with production data based on date and hour
weather_data = left_join(weather_data, production_data, by =  c("date","hour"))

# Print the merged weather data to inspect it
print(weather_data)

## # A tibble: 21,114 × 253
##    date        hour dswrf_surface_38_35 dswrf_surface_38.5_35.25
##    <date>     <dbl>               <dbl>                    <dbl>
##  1 2022-01-01     4                0                          0 
##  2 2022-01-01     5                0                          0 
##  3 2022-01-01     6                0                          0 
##  4 2022-01-01     7                0                          0 
##  5 2022-01-01     8                0                          0 
##  6 2022-01-01     9                8.14                       7 
##  7 2022-01-01    10              185.                       159.
##  8 2022-01-01    11              271.                       245.
##  9 2022-01-01    12              332.                       306.
## 10 2022-01-01    13              373.                       345.
## # ℹ 21,104 more rows
## # ℹ 249 more variables: dswrf_surface_37.75_34.75 <dbl>,
## #   dswrf_surface_38.75_34.5 <dbl>, dswrf_surface_37.75_34.5 <dbl>,
## #   dswrf_surface_38.25_34.75 <dbl>, dswrf_surface_38.75_35 <dbl>,
## #   dswrf_surface_38.5_35 <dbl>, dswrf_surface_38.25_34.5 <dbl>,
## #   dswrf_surface_37.75_35 <dbl>, dswrf_surface_38_34.5 <dbl>,
## #   dswrf_surface_38.5_34.5 <dbl>, dswrf_surface_37.75_35.25 <dbl>, …
…
